lab2/Lab2_b10901176/Lab2_3/simulation/qsim/WSC.msim.vcd
$comment
	File created using the following command:
		vcd file WSC.msim.vcd -direction
$end
$date
	Sat Jan 15 06:49:49 2022
$end
$version
	ModelSim Version 10.1d
$end
$timescale
	1ps
$end
$scope module WSC_vlg_vec_tst $end
$var reg 1 ! clk $end
$var reg 1 " load $end
$var reg 1 # rst_n $end
$var reg 1 $ X $end
$var wire 1 % done $end
$var wire 1 & score [3] $end
$var wire 1 ' score [2] $end
$var wire 1 ( score [1] $end
$var wire 1 ) score [0] $end
$var wire 1 * sampler $end
$scope module i1 $end
$var wire 1 + gnd $end
$var wire 1 , vcc $end
$var wire 1 - unknown $end
$var tri1 1 . devclrn $end
$var tri1 1 / devpor $end
$var tri1 1 0 devoe $end
$var wire 1 1 done~output_o $end
$var wire 1 2 score[3]~output_o $end
$var wire 1 3 score[2]~output_o $end
$var wire 1 4 score[1]~output_o $end
$var wire 1 5 score[0]~output_o $end
$var wire 1 6 clk~input_o $end
$var wire 1 7 clk~inputclkctrl_outclk $end
$var wire 1 8 load~input_o $end
$var wire 1 9 inst16|inst5|inst~combout $end
$var wire 1 : rst_n~input_o $end
$var wire 1 ; rst_n~inputclkctrl_outclk $end
$var wire 1 < inst16|inst1|inst~q $end
$var wire 1 = inst16|inst4|inst~combout $end
$var wire 1 > inst16|inst|inst~q $end
$var wire 1 ? inst16|inst2|inst~combout $end
$var wire 1 @ X~input_o $end
$var wire 1 A inst1|inst1|inst~feeder_combout $end
$var wire 1 B inst1|inst1|inst~q $end
$var wire 1 C inst1|inst8|inst~combout $end
$var wire 1 D inst1|inst|inst~q $end
$var wire 1 E inst11|inst2|inst~0_combout $end
$var wire 1 F inst3|inst2|inst~combout $end
$var wire 1 G inst3|inst|inst~q $end
$var wire 1 H inst3|inst5|inst~combout $end
$var wire 1 I inst3|inst1|inst~q $end
$var wire 1 J inst15|inst|inst~combout $end
$var wire 1 K inst12|inst2~combout $end
$var wire 1 L inst13|inst~q $end
$var wire 1 M inst10|inst2~combout $end
$var wire 1 N inst9|inst~q $end
$var wire 1 O inst11|inst5|inst~0_combout $end
$var wire 1 P inst11|inst5|inst~1_combout $end
$var wire 1 Q inst7|inst2~combout $end
$var wire 1 R inst6|inst~q $end
$var wire 1 S inst4|inst2~combout $end
$var wire 1 T inst|inst~q $end
$upscope $end
$upscope $end
$enddefinitions $end
#0
$dumpvars
0!
0"
0#
0$
0%
0)
0(
0'
0&
x*
0+
1,
x-
1.
1/
10
01
02
03
04
05
06
07
08
09
0:
0;
0<
0=
0>
0?
0@
0A
0B
0C
0D
0E
0F
0G
1H
0I
0J
0K
0L
0M
0N
0O
0P
0Q
0R
0S
0T
$end
#5000
1!
16
17
0*
#10000
0!
06
07
1*
#15000
1!
16
17
0*
#20000
0!
06
07
1*
#25000
1!
16
17
0*
#30000
0!
06
07
1*
#35000
1!
16
17
0*
#40000
1#
0!
1:
06
1;
07
1*
#45000
1!
16
17
0*
1I
#50000
1"
0!
18
06
07
1*
19
#55000
1!
16
17
0*
1<
#60000
0!
06
07
1*
#65000
1!
16
17
0*
#70000
0!
06
07
1*
#75000
1!
16
17
0*
#80000
0!
06
07
1*
#85000
1!
16
17
0*
#90000
0!
06
07
1*
#95000
1!
16
17
0*
#100000
1$
0!
1@
06
07
1*
1F
1A
#105000
1!
16
17
0*
1G
1B
0H
#110000
0!
06
07
1*
#115000
1!
16
17
0*
0I
1J
0F
1K
#120000
0!
06
07
1*
#125000
1!
16
17
0*
0G
1L
1O
0J
1M
0K
15
1)
0M
1K
#130000
0!
06
07
1*
#135000
1!
16
17
0*
#140000
0!
06
07
1*
#145000
1!
16
17
0*
#150000
0$
0!
0@
06
07
1*
1H
1C
0A
#155000
1!
16
17
0*
1I
1D
0B
0C
#160000
0!
06
07
1*
#165000
1!
16
17
0*
0D
#170000
0!
06
07
1*
#175000
1!
16
17
0*
#180000
0!
06
07
1*
#185000
1!
16
17
0*
#190000
1$
0!
1@
06
07
1*
1F
1A
#195000
1!
16
17
0*
1G
1B
0H
#200000
0!
06
07
1*
#205000
1!
16
17
0*
0I
0O
1J
0F
1M
0K
#210000
0$
0!
0@
06
07
1*
1H
1C
0A
#215000
1!
16
17
0*
1I
0G
1D
0B
1N
0L
0J
1E
0C
0M
1K
14
05
1(
0)
1M
0K
#220000
1$
0!
1@
06
07
1*
1F
1C
1A
#225000
1!
16
17
0*
1G
1B
1J
0H
1P
0E
0C
0M
1K
1Q
#230000
0!
06
07
1*
#235000
1!
16
17
0*
0I
0D
1R
0N
1L
0F
0P
1S
0Q
1M
0K
13
04
15
1'
0(
1)
0S
1Q
#240000
0!
06
07
1*
#245000
1!
16
17
0*
0G
1N
0L
0J
1E
0M
1K
14
05
1(
0)
1M
0K
#250000
0!
06
07
1*
#255000
1!
16
17
0*
#260000
0!
06
07
1*
#265000
1!
16
17
0*
#270000
0!
06
07
1*
#275000
1!
16
17
0*
#280000
0!
06
07
1*
#285000
1!
16
17
0*
#290000
0!
06
07
1*
#295000
1!
16
17
0*
#300000
0$
0!
0@
06
07
1*
1H
1C
0A
#305000
1!
16
17
0*
1I
1D
0B
0C
#310000
0!
06
07
1*
#315000
1!
16
17
0*
0D
#320000
0!
06
07
1*
#325000
1!
16
17
0*
#330000
1$
0!
1@
06
07
1*
1F
1A
#335000
1!
16
17
0*
1G
1B
0H
#340000
0$
0!
0@
06
07
1*
1H
0F
1C
0A
#345000
1!
16
17
0*
0G
1D
0B
0C
#350000
0!
06
07
1*
#355000
1!
16
17
0*
0D
#360000
1$
0!
1@
06
07
1*
1F
1A
#365000
1!
16
17
0*
1G
1B
0H
#370000
0!
06
07
1*
#375000
1!
16
17
0*
0I
1J
0F
1K
#380000
0!
06
07
1*
#385000
1!
16
17
0*
0G
1L
0J
0M
0K
15
1)
1M
1K
#390000
0!
06
07
1*
#395000
1!
16
17
0*
#400000
0!
06
07
1*
#405000
1!
16
17
0*
#410000
0$
0!
0@
06
07
1*
1H
1C
0A
#415000
1!
16
17
0*
1I
1D
0B
0C
#420000
1$
0!
1@
06
07
1*
1F
1C
1A
#425000
1!
16
17
0*
1G
1B
1J
0H
1P
0E
0C
0K
1S
0Q
#430000
0!
06
07
1*
#435000
1!
16
17
0*
0I
0D
1T
0R
0L
0F
0P
1E
1Q
0M
1K
12
03
05
1&
0'
0)
0Q
1M
#440000
0!
06
07
1*
#445000
1!
16
17
0*
0G
1L
0J
0M
0K
15
1)
1M
1K
#450000
0$
0!
0@
06
07
1*
1H
1C
0A
#455000
1!
16
17
0*
1I
1D
0B
0C
#460000
0!
06
07
1*
#465000
1!
16
17
0*
0D
#470000
0!
06
07
1*
#475000
1!
16
17
0*
#480000
0!
06
07
1*
#485000
1!
16
17
0*
#490000
1$
0!
1@
06
07
1*
1F
1A
#495000
1!
16
17
0*
1G
1B
0H
#500000
0!
06
07
1*
#505000
1!
16
17
0*
0I
1O
1J
0F
1P
0M
0K
1Q
#510000
0$
0!
0@
06
07
1*
1H
1C
0A
#515000
1!
16
17
0*
1I
0G
1D
0B
1R
0N
0L
0O
0J
0P
0E
0C
0S
0Q
1M
1K
13
04
05
1'
0(
0)
0M
0K
1S
1Q
#520000
0!
06
07
1*
#525000
1!
16
17
0*
0D
#530000
0!
06
07
1*
#535000
1!
16
17
0*
#540000
0!
06
07
1*
#545000
1!
16
17
0*
#550000
0!
06
07
1*
#555000
1!
16
17
0*
#560000
0!
06
07
1*
#565000
1!
16
17
0*
#570000
0!
06
07
1*
#575000
1!
16
17
0*
#580000
0!
06
07
1*
#585000
1!
16
17
0*
#590000
1$
0!
1@
06
07
1*
1F
1A
#595000
1!
16
17
0*
1G
1B
0H
#600000
0!
06
07
1*
#605000
1!
16
17
0*
0I
1J
0F
1K
#610000
0!
06
07
1*
#615000
1!
16
17
0*
0G
1L
1O
0J
1M
0K
15
1)
0M
1K
#620000
0!
06
07
1*
#625000
1!
16
17
0*
#630000
0!
06
07
1*
#635000
1!
16
17
0*
#640000
0!
06
07
1*
#645000
1!
16
17
0*
#650000
0$
0!
0@
06
07
1*
1H
1C
0A
#655000
1!
16
17
0*
1I
1D
0B
0C
#660000
0"
0!
08
06
07
1*
1=
#665000
1!
16
17
0*
0D
1>
0Q
0K
0=
09
1?
0S
11
1%
#670000
0!
06
07
1*
#675000
1!
16
17
0*
0>
0<
0T
0R
0L
0O
02
03
05
0&
0'
0)
0?
01
0%
#680000
0!
06
07
1*
#685000
1!
16
17
0*
#690000
0!
06
07
1*
#695000
1!
16
17
0*
#700000
0!
06
07
1*
#705000
1!
16
17
0*
#710000
0!
06
07
1*
#715000
1!
16
17
0*
#720000
0!
06
07
1*
#725000
1!
16
17
0*
#730000
0!
06
07
1*
#735000
1!
16
17
0*
#740000
0!
06
07
1*
#745000
1!
16
17
0*
#750000
0!
06
07
1*
#755000
1!
16
17
0*
#760000
0!
06
07
1*
#765000
1!
16
17
0*
#770000
0!
06
07
1*
#775000
1!
16
17
0*
#780000
0!
06
07
1*
#785000
1!
16
17
0*
#790000
0!
06
07
1*
#795000
1!
16
17
0*
#800000
0!
06
07
1*
#805000
1!
16
17
0*
#810000
0!
06
07
1*
#815000
1!
16
17
0*
#820000
0!
06
07
1*
#825000
1!
16
17
0*
#830000
0!
06
07
1*
#835000
1!
16
17
0*
#840000
0!
06
07
1*
#845000
1!
16
17
0*
#850000
0!
06
07
1*
#855000
1!
16
17
0*
#860000
0!
06
07
1*
#865000
1!
16
17
0*
#870000
0!
06
07
1*
#875000
1!
16
17
0*
#880000
0!
06
07
1*
#885000
1!
16
17
0*
#890000
0#
0!
0:
06
0;
07
1*
0I
#895000
1!
16
17
0*
#900000
0!
06
07
1*
#905000
1!
16
17
0*
#910000
0!
06
07
1*
#915000
1!
16
17
0*
#920000
0!
06
07
1*
#925000
1!
16
17
0*
#930000
0!
06
07
1*
#935000
1!
16
17
0*
#940000
0!
06
07
1*
#945000
1!
16
17
0*
#950000
0!
06
07
1*
#955000
1!
16
17
0*
#960000
0!
06
07
1*
#965000
1!
16
17
0*
#970000
0!
06
07
1*
